// Jest Snapshot v1, https://goo.gl/fbAQLP

exports[`frontend/default/components/table_of_contents matches snapshot 1`] = `
<div
  class="markdown-toc table-of-contents-container gl-lg-sticky"
>
  <div
    class="table-of-contents"
  >
    <h4
      class="gl-my-0! gl-border-none! toc-sm gl-lg-display-none"
    >
      <a
        aria-controls="markdown-toc"
        class="gl-text-decoration-none gl-border-bottom-0!"
        data-testid="collapse"
        href="#"
        role="button"
      >
        <gl-icon-stub
          name="chevron-right"
          size="16"
          variant="current"
        />
        On this page
      </a>
    </h4>
    <h4
      class="gl-border-none! gl-font-base gl-font-weight-bold toc-lg"
    >
      On this page
    </h4>
    <gl-collapse-stub
      data-testid="container"
    >
      <table-of-contents-list-stub
        class="my-0"
        data-testid="main-list"
        items="[object Object],[object Object],[object Object],[object Object],[object Object],[object Object],[object Object]"
        level="0"
      />
    </gl-collapse-stub>
  </div>
</div>
`;
